{
  "type": "service_account",
  "project_id": "app-venta-fija",
  "private_key_id": "7f83e030b88c62c135eab43edd86a800a637880d",
  "private_key": "-----BEGIN PRIVATE KEY-----\nMIIEvgIBADANBgkqhkiG9w0BAQEFAASCBKgwggSkAgEAAoIBAQDT6cP0O9rsS1Yt\nwCFASN4Ykx2ZMiHleDMRraFgtxx3KqSBHJuRLhj9f5Eodbn7JOQMbiH7gBJ/F3ng\n91PPVVgZ9LNBmfLANcuXLUxh+J7fgTlU89SF2s9qCdoQX+HL4Q9EfJo16DKyDLF3\nlA626nQ0E+W7j3tBXd47VlCSusFg7Vb0nY9kPucqMBsQRa4A1Du4pGscwFFZUZ88\n6AXuU5MNyrdZf+bs0+wqOOwzeHrIm4k+twM1DDE1R7Zz8YlVJGfDVxDzKBzqqNg5\nFZO+gYCZ1RRMAnkRT3tG4R6C0RSVjgvpcsaLFsdbOtYYuAdU1u+OX0EwbyMyYIJG\nNX8jDwWtAgMBAAECggEAVvb1GrLBmf0kxau2OZptwqoFGIxxSql0U8nskzMyNFlE\nn1OtJ/xB9y411OPTShSOnedIfNzHOm7Y7pCxTUHZ4PUB52cVLvokrcrCMOaF1HVE\noO9bhP8R5ZNbcSLYGAIpcNKtuneq7lS1M7yH+VroC0MrITi1vVKXU8SNVlnb6Dle\n/Cw04oRoa6re6+C+xmP5ECNEvZDzl7FKAkIznc47KqkzHtbG84yTW78fGI9Rck6q\njqmuUdFNKd2rFhtiuloqZHAh185KCNOJJPo7NWgVENEWgr7xTdsIGfJ6Pyy0845T\nhA1wQctZsGS4oBXz4DFyzjz9H+rXaQIUHiYhKCP94QKBgQDzmrybPDlrJmHprp7h\nxFCXEGZWMkUzeQ8S/gB3FqiKnMl3gRyBQ3sBD7m154jZz/zEkzO8zWKBGKKRg4Ub\nnkEKPL9p9+nFv7MXVHnMA2149ljnYHugc70/MucTzt4KVciC82p9swwj93MOk3gk\n05EY+5TrqTTthkcnJAxZZItqCQKBgQDesjVkS9/0HlmJwOp1ZdiQGw+dEfKShOIt\nBue7AhpfAPCrlbPgxUnjuT3qrNl1zIA5hBNMsSFV7CtCqHWO8iuc+GZrgDwWDPil\nu1oNnnjuUgPISsO3arrP/HXlCDKy1Ccgon0rM3rgMkVRlCGH2XL3I6Azpx1bIQUF\n9bKNtlE3hQKBgQDwLHEjg/8AW3lRka5n3MuwBKVA+pMrqoFoMjF3OEm3T9l6Dztx\nXnyZkU2BwOM2DE+j55Ws4bnqmcU+PjMwBZkOZNI7wgcjxlrl942VzRNTnV4N0RxS\nF4pQEvmsl9pmyijEowUtJSglFcTEbDSZ6lU2EmTC67KZNDhWqL3cLLsfMQKBgQDX\nEwmZqeXK4Jzc+6H0a74xvtDfg3vgodHGZsraw3cwlbnaHSSyShfIhRkVUoZazHxy\nD+qLwO5PC13kbMnMmnogiY5w+FIPgcuKVFzulkR49mCMyhgnRj7RrCM4ZSiBqX94\ndzWnyXo8mJB17zhK+Wmc4Z1RBW7Gmic90EL3tkLN+QKBgHO/cj2EDbzM2+iZNyo0\n5s+jkZmei8CWXIkdEYY98rvOD2Q7dtX7qSRXT8Se8qa9G2ckoQ3k61lCOqvkfbFc\nd2qge0vBXY9jAbWoY2nGIGbUtaQGQ3tx1qglAnLaCI2iVBFCMXTEG2t2mVdO7uvp\ntf6FySKaXpiDrC/Weo+d/w5q\n-----END PRIVATE KEY-----\n",
  "client_email": "firebase@app-venta-fija.iam.gserviceaccount.com",
  "client_id": "118033978838484847762",
  "auth_uri": "https://accounts.google.com/o/oauth2/auth",
  "token_uri": "https://accounts.google.com/o/oauth2/token",
  "auth_provider_x509_cert_url": "https://www.googleapis.com/oauth2/v1/certs",
  "client_x509_cert_url": "https://www.googleapis.com/robot/v1/metadata/x509/firebase%40app-venta-fija.iam.gserviceaccount.com"
}